\relax 
\@writefile{toc}{\contentsline {section}{\numberline {1}Project Description}{1}}
\@writefile{toc}{\contentsline {section}{\numberline {2}How to compile}{1}}
\@writefile{toc}{\contentsline {section}{\numberline {3}How to run}{1}}
\@writefile{toc}{\contentsline {section}{\numberline {4}Features included in your solution}{1}}
\@writefile{toc}{\contentsline {subsection}{\numberline {4.1}DHCP}{1}}
\@writefile{toc}{\contentsline {subsection}{\numberline {4.2}ICMP}{1}}
\@writefile{toc}{\contentsline {subsection}{\numberline {4.3}M.A.C. generation}{1}}
\@writefile{toc}{\contentsline {subsection}{\numberline {4.4}Network selection}{2}}
\@writefile{toc}{\contentsline {section}{\numberline {5}Algorithms and data structures used to implement your solution}{2}}
\@writefile{toc}{\contentsline {subsection}{\numberline {5.1}Structures}{2}}
\@writefile{toc}{\contentsline {subsection}{\numberline {5.2}Server}{2}}
\@writefile{toc}{\contentsline {subsection}{\numberline {5.3}Client}{3}}
